<?xml version="1.0" standalone="no"?>
<!DOCTYPE svg PUBLIC "-//W3C//DTD SVG 20010904//EN"
 "http://www.w3.org/TR/2001/REC-SVG-20010904/DTD/svg10.dtd">
<svg version="1.0" xmlns="http://www.w3.org/2000/svg"
 width="170.000000pt" height="170.000000pt" viewBox="0 0 170.000000 170.000000"
 preserveAspectRatio="xMidYMid meet">

<g transform="translate(0.000000,170.000000) scale(0.100000,-0.100000)"
fill="#105cdc" stroke="none">
<path d="M1040 1445 c-261 -140 -479 -256 -485 -258 -5 -2 -7 -7 -4 -11 4 -4
80 0 170 8 90 9 166 12 170 8 4 -4 -144 -252 -328 -552 -183 -300 -339 -554
-345 -565 -9 -18 -9 -18 5 -5 8 8 279 343 602 745 324 402 615 762 647 801 56
69 66 85 51 83 -5 0 -222 -115 -483 -254z"/>
</g>
</svg>
